{
  "project_info": {
    "project_number": "692032155821",
    "firebase_url": "https://racionamento-a1918.firebaseio.com",
    "project_id": "racionamento-a1918",
    "storage_bucket": "racionamento-a1918.appspot.com"
  },
  "client": [
    {
      "client_info": {
        "mobilesdk_app_id": "1:692032155821:android:9990b9ebdf8df18c",
        "android_client_info": {
          "package_name": "com.wsadevv.racionamentobsb"
        }
      },
      "oauth_client": [
        {
          "client_id": "692032155821-6v0rpfq6bb2f1hfmhts2h75jivhesspj.apps.googleusercontent.com",
          "client_type": 3
        }
      ],
      "api_key": [
        {
          "current_key": "AIzaSyAPnIMCJYtSj9cVaGnqYeglf1CkjA5Gjys"
        }
      ],
      "services": {
        "analytics_service": {
          "status": 1
        },
        "appinvite_service": {
          "status": 1,
          "other_platform_oauth_client": []
        },
        "ads_service": {
          "status": 2
        }
      }
    }
  ],
  "configuration_version": "1"
}